[
  {
    "op": "add",
    "path": "/spec/template/spec/containers/0/volumeMounts/-",
    "value": {
      "mountPath": "/grafana-dashboard-definitions/0/istio",
      "name": "istio-dashboards"
    }
  },
  {
    "op": "add",
    "path": "/spec/template/spec/volumes/-",
    "value": {
      "configMap": {
        "defaultMode": 420,
        "name": "istio-dashboards"
      },
      "name": "istio-dashboards"
    }
  }
]