[
  {
    "op": "replace",
    "path": "/spec/endpoints/0/port",
    "value": "https-metrics"
  },
  {
    "op": "replace",
    "path": "/spec/endpoints/0/scheme",
    "value": "https"
  },
  {
    "op": "replace",
    "path": "/spec/endpoints/1/port",
    "value": "https-metrics"
  },
  {
    "op": "replace",
    "path": "/spec/endpoints/1/scheme",
    "value": "https"
  }
]